…
</div>

<br/><br/>

<div class="card">
<div class="card-header">
We shall now analyze some major causes of mortality in luxembourg and how these causes have affected different age groups.
</div>
  
<div class="card-body">



```
# A tibble: 193 × 2
   Indicator_Name                            n
   <chr>                                 <int>
 1 All Causes                             2703
 2 Appendicitis                           2703
 3 Birth asphyxia and birth trauma        2703
 4 Breast cancer                          2703
 5 Cardiovascular diseases                2703
 6 Cataracts                              2703
 7 Cerebrovascular disease                2703
 8 Childhood-cluster diseases             2703
 9 Chronic obstructive pulmonary disease  2703
10 Cirrhosis of the liver                 2703
# … with 183 more rows
```
…
